......................
----------------------------------------------------------------------
Ran 22 tests in 0.466s

OK
Name             Stmts   Miss Branch BrPart  Cover   Missing
------------------------------------------------------------
Collatz.py          48      0     22      1    99%   38->41
TestCollatz.py      81      0      0      0   100%
------------------------------------------------------------
TOTAL              129      0     22      1    99%
